…
# now load a connectionstring of the format "grpc://user:pass@hostname:port/"
# perhaps from an environment variable in .Renviron
# then make a connection against that server

#file.edit("~/.Renviron")
#readRenviron("~/.Renviron")
con <- adbc_connect(Sys.getenv("CS_DEMETRIUS_FLIGHTSQL"))

# list tables available in the database
#con |> adbc_tables()

# retrieve full table

con |> adbc_table("publishers")
#> # A tibble: 10,741 × 20
#>    publisher_id display_name  alternate_titles country_codes parent_publisher_id
#>         <int64> <chr>         <chr>            <chr>                     <int64>
#>  1   4366305896 INFAD Associ… <NA>             <NA>                           NA
#>  2   4310322437 Centro de Es… <NA>             ES                             NA
#>  3   4310312088 Diretório Ac… <NA>             BR                             NA
#>  4   4310313036 Gabriel Dumo… <NA>             CA                             NA
#>  5   4310317335 Muzeum Małeg… <NA>             PL                             NA
#>  6   4310317597 Diritto Civi… <NA>             IT                             NA
#>  7   4310311065 Laboratoire … <NA>             FR                             NA
#>  8   4310311121 Société Jule… <NA>             FR                             NA
#>  9   4310311127 Association … <NA>             FR                             NA
#> 10   4310312236 Centro Latin… <NA>             BR                             NA
#> # ℹ 10,731 more rows
#> # ℹ 15 more variables: parent_publisher_display_name <chr>, lineage <chr>,
#> #   hierarchy_level <int>, wikidata_id <chr>, ror <chr>, homepage_url <chr>,
#> #   image_url <chr>, image_thumbnail_url <chr>, works_count <int>,
#> #   cited_by_count <int>, sources_count <int>, sources_api_url <chr>,
#> #   updated_date <date>, created_date <date>, updated <dttm>
…
con |> adbc_table("topics") |> 
    dplyr::select(topic_path, works_count, cited_by_count)
#> # A tibble: 4,516 × 3
#>    topic_path      works_count cited_by_count
#>    <chr>               <int64>        <int64>
#>  1 4/27/2745/10418       97978        1074822
#>  2 1/11/1110/13142       47318         302847
#>  3 2/20/2003/11531       48907         227195
#>  4 1/11/1105/12001       21690         144078
#>  5 2/12/1202/13590       16386          23924
#>  6 1/13/1307/11650       36930         736965
#>  7 2/20/2003/14101       41743          24683
#>  8 3/26/2604/10940       26270         337964
#>  9 2/33/3312/11755       39028         167651
#> 10 2/12/1204/14506       62646          69107
#> # ℹ 4,506 more rows
…
